0.0125,0
0,0.0125
-0.0125,0
-0.0125,0
0,-0.0125
0.025,0
0.025,0.025
0,0.025
-0.025,0.025
-0.025,0
-0.025,0
-0.025,-0.025
0,-0.025
0.025,-0.025
-1,-4.06138088466549
-0.8,-4.06138088466549
-0.6,-4.06138088466549
-0.4,-4.06138088466549
-0.2,-4.06138088466549
0,-4.06138088466549
0.2,-4.06138088466549
0.4,-4.06138088466549
0.6,-4.06138088466549
0.8,-4.06138088466549
1,-4.06138088466549
-1,-3.809375
-0.8,-3.809375
-0.6,-3.809375
-0.4,-3.809375
-0.2,-3.809375
0,-3.809375
0.2,-3.809375
0.4,-3.809375
0.6,-3.809375
0.8,-3.809375
1,-3.809375
-1,-3.41875
-0.8,-3.41875
-0.6,-3.41875
-0.4,-3.41875
-0.2,-3.41875
0,-3.41875
0.2,-3.41875
0.4,-3.41875
0.6,-3.41875
0.8,-3.41875
1,-3.41875
-1,-3.028125
-0.8,-3.028125
-0.6,-3.028125
-0.4,-3.028125
-0.2,-3.028125
0,-3.028125
0.2,-3.028125
0.4,-3.028125
0.6,-3.028125
0.8,-3.028125
1,-3.028125
-1,-2.6375
-0.8,-2.6375
-0.6,-2.6375
-0.4,-2.6375
-0.2,-2.6375
0,-2.6375
0.2,-2.6375
0.4,-2.6375
0.6,-2.6375
0.8,-2.6375
1,-2.6375
-1,-2.246875
-0.8,-2.246875
-0.6,-2.246875
-0.4,-2.246875
-0.2,-2.246875
0,-2.246875
0.2,-2.246875
0.4,-2.246875
0.6,-2.246875
0.8,-2.246875
1,-2.246875
-1,-1.85625
-0.8,-1.85625
-0.6,-1.85625
-0.4,-1.85625
-0.2,-1.85625
0,-1.85625
0.2,-1.85625
0.4,-1.85625
0.6,-1.85625
0.8,-1.85625
1,-1.85625
-1,-1.465625
-0.8,-1.465625
-0.6,-1.465625
-0.4,-1.465625
-0.2,-1.465625
0,-1.465625
0.2,-1.465625
0.4,-1.465625
0.6,-1.465625
0.8,-1.465625
1,-1.465625
-1,-1.075
-0.8,-1.075
-0.6,-1.075
-0.4,-1.075
-0.2,-1.075
0,-1.075
0.2,-1.075
0.4,-1.075
0.6,-1.075
0.8,-1.075
1,-1.075
-1,-0.684375
-0.8,-0.684375
-0.6,-0.684375
-0.4,-0.684375
-0.2,-0.684375
0,-0.684375
0.2,-0.684375
0.4,-0.684375
0.6,-0.684375
0.8,-0.684375
1,-0.684375
-1,-0.29375
-0.9,-0.29375
-0.8,-0.29375
-0.7,-0.29375
-0.6,-0.29375
-0.5,-0.29375
-0.4,-0.29375
-0.3,-0.29375
-0.2,-0.29375
-0.1,-0.29375
0,-0.29375
0.1,-0.29375
0.2,-0.29375
0.3,-0.29375
0.4,-0.29375
0.5,-0.29375
0.6,-0.29375
0.7,-0.29375
0.8,-0.29375
0.9,-0.29375
1,-0.29375
-1,-0.1375
-0.95,-0.1375
-0.9,-0.1375
-0.85,-0.1375
-0.8,-0.1375
-0.75,-0.1375
-0.7,-0.1375
-0.65,-0.1375
-0.6,-0.1375
-0.55,-0.1375
-0.5,-0.1375
-0.45,-0.1375
-0.4,-0.1375
-0.35,-0.1375
-0.3,-0.1375
-0.25,-0.1375
-0.2,-0.1375
-0.15,-0.1375
-0.1,-0.1375
-0.05,-0.1375
0,-0.1375
0.05,-0.1375
0.1,-0.1375
0.15,-0.1375
0.2,-0.1375
0.25,-0.1375
0.3,-0.1375
0.35,-0.1375
0.4,-0.1375
0.45,-0.1375
0.5,-0.1375
0.55,-0.1375
0.6,-0.1375
0.65,-0.1375
0.7,-0.1375
0.75,-0.1375
0.8,-0.1375
0.85,-0.1375
0.9,-0.1375
0.95,-0.1375
1,-0.1375
-1,-0.075
-0.975000000000001,-0.075
-0.950000000000001,-0.075
-0.925,-0.075
-0.9,-0.075
-0.875,-0.075
-0.85,-0.075
-0.825,-0.075
-0.8,-0.075
-0.775,-0.075
-0.75,-0.075
-0.725,-0.075
-0.7,-0.075
-0.675,-0.075
-0.65,-0.075
-0.625,-0.075
-0.6,-0.075
-0.575,-0.075
-0.55,-0.075
-0.525,-0.075
-0.5,-0.075
-0.475,-0.075
-0.45,-0.075
-0.425,-0.075
-0.4,-0.075
-0.375,-0.075
-0.35,-0.075
-0.325,-0.075
-0.3,-0.075
-0.275,-0.075
-0.25,-0.075
-0.225,-0.075
-0.2,-0.075
-0.175,-0.075
-0.15,-0.075
-0.125,-0.075
-0.1,-0.075
-0.075,-0.075
-0.05,-0.075
-0.025,-0.075
0,-0.075
0.025,-0.075
0.05,-0.075
0.075,-0.075
0.1,-0.075
0.125,-0.075
0.15,-0.075
0.175,-0.075
0.2,-0.075
0.225,-0.075
0.25,-0.075
0.275,-0.075
0.3,-0.075
0.325,-0.075
0.35,-0.075
0.375,-0.075
0.4,-0.075
0.425,-0.075
0.45,-0.075
0.475,-0.075
0.5,-0.075
0.525,-0.075
0.55,-0.075
0.575,-0.075
0.6,-0.075
0.625,-0.075
0.65,-0.075
0.675,-0.075
0.7,-0.075
0.725,-0.075
0.75,-0.075
0.775,-0.075
0.8,-0.075
0.825,-0.075
0.85,-0.075
0.875,-0.075
0.9,-0.075
0.925,-0.075
0.950000000000001,-0.075
0.975000000000001,-0.075
1,-0.075
-1,-0.0613808846654915
-0.975000000000001,-0.0600706901834155
-0.950000000000001,-0.0587604957013394
-0.925,-0.0574503012192634
-0.9,-0.0561401067371874
-0.875,-0.0548299122551113
-0.85,-0.0535197177730353
-0.825,-0.0522095232909593
-0.8,-0.0508993288088832
-0.782839784070486,-0.05
-0.75,-0.0482789398447312
-0.725,-0.0469687453626551
-0.7,-0.0456585508805791
-0.675,-0.0443483563985031
-0.65,-0.0430381619164271
-0.625,-0.041727967434351
-0.6,-0.040417772952275
-0.575,-0.039107578470199
-0.55,-0.0377973839881229
-0.525,-0.05
-0.5,-0.05
-0.475,-0.05
-0.45,-0.05
-0.425,-0.05
-0.4,-0.05
-0.375,-0.05
-0.35,-0.05
-0.325,-0.05
-0.3,-0.05
-0.275,-0.05
-0.25,-0.05
-0.225,-0.05
-0.2,-0.05
-0.175,-0.05
-0.15,-0.05
-0.125,-0.05
-0.1,-0.05
-0.075,-0.05
-0.05,-0.05
-0.025,-0.05
0,-0.05
0.025,-0.05
0.05,-0.05
0.075,-0.05
0.1,-0.05
0.125,-0.05
0.15,-0.05
0.175,-0.05
0.2,-0.05
0.225,-0.05
0.25,-0.05
0.275,-0.05
0.3,-0.05
0.325,-0.05
0.35,-0.05
0.375,-0.05
0.4,-0.05
0.425,-0.05
0.45,-0.05
0.475,-0.05
0.5,-0.05
0.525,-0.05
0.55,-0.0377973839881229
0.575,-0.039107578470199
0.6,-0.040417772952275
0.625,-0.041727967434351
0.65,-0.0430381619164271
0.675,-0.0443483563985031
0.7,-0.0456585508805791
0.725,-0.0469687453626551
0.75,-0.0482789398447312
0.782839784070486,-0.05
0.8,-0.0508993288088832
0.825,-0.0522095232909593
0.85,-0.0535197177730353
0.875,-0.0548299122551113
0.9,-0.0561401067371874
0.925,-0.0574503012192634
0.950000000000001,-0.0587604957013394
0.975000000000001,-0.0600706901834155
1,-0.0613808846654915
-0.525,-0.0364871895060469
-0.5,-0.0351769950239709
-0.475,-0.0338668005418948
-0.45,-0.0325566060598188
-0.425,-0.0312464115777428
-0.4,-0.0299362170956667
-0.375,-0.0286260226135907
-0.35,-0.0273158281315147
-0.325,-0.0260056336494387
-0.305811366877282,-0.025
-0.275,-0.0233852446852866
-0.25,-0.0220750502032106
-0.225,-0.0207648557211345
-0.2,-0.0194546612390585
-0.175,-0.0181444667569825
-0.15,-0.0168342722749064
-0.125,-0.0155240777928304
-0.1,-0.025
-0.075,-0.025
-0.05,-0.025
0.05,-0.025
0.075,-0.025
0.1,-0.025
0.125,-0.0155240777928304
0.15,-0.0168342722749064
0.175,-0.0181444667569825
0.2,-0.0194546612390585
0.225,-0.0207648557211345
0.25,-0.0220750502032106
0.275,-0.0233852446852866
0.305811366877282,-0.025
0.325,-0.0260056336494387
0.35,-0.0273158281315147
0.375,-0.0286260226135907
0.4,-0.0299362170956667
0.425,-0.0312464115777428
0.45,-0.0325566060598188
0.475,-0.0338668005418948
0.5,-0.0351769950239709
0.525,-0.0364871895060469
-0.1,0
-0.075,0
-0.05,0
-0.1,0
-0.075,0
-0.05,0
0.05,0
0.075,0
0.1,0
-0.525,0.0364871895060469
-0.5,0.0351769950239709
-0.475,0.0338668005418948
-0.45,0.0325566060598188
-0.425,0.0312464115777428
-0.4,0.0299362170956667
-0.375,0.0286260226135907
-0.35,0.0273158281315147
-0.325,0.0260056336494387
-0.305811366877282,0.025
-0.275,0.0233852446852866
-0.25,0.0220750502032106
-0.225,0.0207648557211345
-0.2,0.0194546612390585
-0.175,0.0181444667569825
-0.15,0.0168342722749064
-0.125,0.0155240777928304
-0.1,0.025
-0.075,0.025
-0.05,0.025
0.05,0.025
0.075,0.025
0.1,0.025
0.125,0.0155240777928304
0.15,0.0168342722749064
0.175,0.0181444667569825
0.2,0.0194546612390585
0.225,0.0207648557211345
0.25,0.0220750502032106
0.275,0.0233852446852866
0.305811366877282,0.025
0.325,0.0260056336494387
0.35,0.0273158281315147
0.375,0.0286260226135907
0.4,0.0299362170956667
0.425,0.0312464115777428
0.45,0.0325566060598188
0.475,0.0338668005418948
0.5,0.0351769950239709
0.525,0.0364871895060469
-1,0.0613808846654915
-0.975000000000001,0.0600706901834155
-0.950000000000001,0.0587604957013394
-0.925,0.0574503012192634
-0.9,0.0561401067371874
-0.875,0.0548299122551113
-0.85,0.0535197177730353
-0.825,0.0522095232909593
-0.8,0.0508993288088832
-0.782839784070486,0.05
-0.75,0.0482789398447312
-0.725,0.0469687453626551
-0.7,0.0456585508805791
-0.675,0.0443483563985031
-0.65,0.0430381619164271
-0.625,0.041727967434351
-0.6,0.040417772952275
-0.575,0.039107578470199
-0.55,0.0377973839881229
-0.525,0.05
-0.5,0.05
-0.475,0.05
-0.45,0.05
-0.425,0.05
-0.4,0.05
-0.375,0.05
-0.35,0.05
-0.325,0.05
-0.3,0.05
-0.275,0.05
-0.25,0.05
-0.225,0.05
-0.2,0.05
-0.175,0.05
-0.15,0.05
-0.125,0.05
-0.1,0.05
-0.075,0.05
-0.05,0.05
-0.025,0.05
-0,0.05
0.025,0.05
0.05,0.05
0.075,0.05
0.1,0.05
0.125,0.05
0.15,0.05
0.175,0.05
0.2,0.05
0.225,0.05
0.25,0.05
0.275,0.05
0.3,0.05
0.325,0.05
0.35,0.05
0.375,0.05
0.4,0.05
0.425,0.05
0.45,0.05
0.475,0.05
0.5,0.05
0.525,0.05
0.55,0.0377973839881229
0.575,0.039107578470199
0.6,0.040417772952275
0.625,0.041727967434351
0.65,0.0430381619164271
0.675,0.0443483563985031
0.7,0.0456585508805791
0.725,0.0469687453626551
0.75,0.0482789398447312
0.782839784070486,0.05
0.8,0.0508993288088832
0.825,0.0522095232909593
0.85,0.0535197177730353
0.875,0.0548299122551113
0.9,0.0561401067371874
0.925,0.0574503012192634
0.950000000000001,0.0587604957013394
0.975000000000001,0.0600706901834155
1,0.0613808846654915
-1,0.075
-0.975000000000001,0.075
-0.950000000000001,0.075
-0.925,0.075
-0.9,0.075
-0.875,0.075
-0.85,0.075
-0.825,0.075
-0.8,0.075
-0.775,0.075
-0.75,0.075
-0.725,0.075
-0.7,0.075
-0.675,0.075
-0.65,0.075
-0.625,0.075
-0.6,0.075
-0.575,0.075
-0.55,0.075
-0.525,0.075
-0.5,0.075
-0.475,0.075
-0.45,0.075
-0.425,0.075
-0.4,0.075
-0.375,0.075
-0.35,0.075
-0.325,0.075
-0.3,0.075
-0.275,0.075
-0.25,0.075
-0.225,0.075
-0.2,0.075
-0.175,0.075
-0.15,0.075
-0.125,0.075
-0.1,0.075
-0.075,0.075
-0.05,0.075
-0.025,0.075
-0,0.075
0.025,0.075
0.05,0.075
0.075,0.075
0.1,0.075
0.125,0.075
0.15,0.075
0.175,0.075
0.2,0.075
0.225,0.075
0.25,0.075
0.275,0.075
0.3,0.075
0.325,0.075
0.35,0.075
0.375,0.075
0.4,0.075
0.425,0.075
0.45,0.075
0.475,0.075
0.5,0.075
0.525,0.075
0.55,0.075
0.575,0.075
0.6,0.075
0.625,0.075
0.65,0.075
0.675,0.075
0.7,0.075
0.725,0.075
0.75,0.075
0.775,0.075
0.8,0.075
0.825,0.075
0.85,0.075
0.875,0.075
0.9,0.075
0.925,0.075
0.950000000000001,0.075
0.975000000000001,0.075
1,0.075
-1,0.1375
-0.95,0.1375
-0.9,0.1375
-0.85,0.1375
-0.8,0.1375
-0.75,0.1375
-0.7,0.1375
-0.65,0.1375
-0.6,0.1375
-0.55,0.1375
-0.5,0.1375
-0.45,0.1375
-0.4,0.1375
-0.35,0.1375
-0.3,0.1375
-0.25,0.1375
-0.2,0.1375
-0.15,0.1375
-0.1,0.1375
-0.05,0.1375
-0,0.1375
0.05,0.1375
0.1,0.1375
0.15,0.1375
0.2,0.1375
0.25,0.1375
0.3,0.1375
0.35,0.1375
0.4,0.1375
0.45,0.1375
0.5,0.1375
0.55,0.1375
0.6,0.1375
0.65,0.1375
0.7,0.1375
0.75,0.1375
0.8,0.1375
0.85,0.1375
0.9,0.1375
0.95,0.1375
1,0.1375
-1,0.29375
-0.9,0.29375
-0.8,0.29375
-0.7,0.29375
-0.6,0.29375
-0.5,0.29375
-0.4,0.29375
-0.3,0.29375
-0.2,0.29375
-0.1,0.29375
-0,0.29375
0.1,0.29375
0.2,0.29375
0.3,0.29375
0.4,0.29375
0.5,0.29375
0.6,0.29375
0.7,0.29375
0.8,0.29375
0.9,0.29375
1,0.29375
-1,0.684375
-0.8,0.684375
-0.6,0.684375
-0.4,0.684375
-0.2,0.684375
-0,0.684375
0.2,0.684375
0.4,0.684375
0.6,0.684375
0.8,0.684375
1,0.684375
-1,1.075
-0.8,1.075
-0.6,1.075
-0.4,1.075
-0.2,1.075
-0,1.075
0.2,1.075
0.4,1.075
0.6,1.075
0.8,1.075
1,1.075
-1,1.465625
-0.8,1.465625
-0.6,1.465625
-0.4,1.465625
-0.2,1.465625
-0,1.465625
0.2,1.465625
0.4,1.465625
0.6,1.465625
0.8,1.465625
1,1.465625
-1,1.85625
-0.8,1.85625
-0.6,1.85625
-0.4,1.85625
-0.2,1.85625
-0,1.85625
0.2,1.85625
0.4,1.85625
0.6,1.85625
0.8,1.85625
1,1.85625
-1,2.246875
-0.8,2.246875
-0.6,2.246875
-0.4,2.246875
-0.2,2.246875
-0,2.246875
0.2,2.246875
0.4,2.246875
0.6,2.246875
0.8,2.246875
1,2.246875
-1,2.6375
-0.8,2.6375
-0.6,2.6375
-0.4,2.6375
-0.2,2.6375
-0,2.6375
0.2,2.6375
0.4,2.6375
0.6,2.6375
0.8,2.6375
1,2.6375
-1,3.028125
-0.8,3.028125
-0.6,3.028125
-0.4,3.028125
-0.2,3.028125
-0,3.028125
0.2,3.028125
0.4,3.028125
0.6,3.028125
0.8,3.028125
1,3.028125
-1,3.41875
-0.8,3.41875
-0.6,3.41875
-0.4,3.41875
-0.2,3.41875
-0,3.41875
0.2,3.41875
0.4,3.41875
0.6,3.41875
0.8,3.41875
1,3.41875
-1,3.809375
-0.8,3.809375
-0.6,3.809375
-0.4,3.809375
-0.2,3.809375
-0,3.809375
0.2,3.809375
0.4,3.809375
0.6,3.809375
0.8,3.809375
1,3.809375
-1,4.06138088466549
-0.8,4.06138088466549
-0.6,4.06138088466549
-0.4,4.06138088466549
-0.2,4.06138088466549
-0,4.06138088466549
0.2,4.06138088466549
0.4,4.06138088466549
0.6,4.06138088466549
0.8,4.06138088466549
1,4.06138088466549,
