^C:\USERS\ASUS\DOCUMENTS\VISUAL STUDIO 2012\PROJECTS\OPENGL_FRAMEWORK_VS2012_WIN32\SRC\SHADER.CPP
/c /I"C:\Users\asus\Documents\Visual Studio 2012\Projects\OpenGL_Framework_VS2012_Win32\examples\SolarSystem\../../include" /I"C:\Users\asus\Documents\Visual Studio 2012\Projects\OpenGL_Framework_VS2012_Win32\examples\SolarSystem\../../contrib/gloostmath/src" /I"C:\Users\asus\Documents\Visual Studio 2012\Projects\OpenGL_Framework_VS2012_Win32\examples\SolarSystem\../../contrib/FreeImage" /I"C:\Users\asus\Documents\Visual Studio 2012\Projects\OpenGL_Framework_VS2012_Win32\examples\SolarSystem\../../src" /ZI /nologo /W3 /WX- /Od /Oy- /D WIN32 /D _DEBUG /D _CONSOLE /D _UNICODE /D UNICODE /Gm /EHsc /RTC1 /MDd /GS /fp:precise /Zc:wchar_t /Zc:forScope /Fo"DEBUG\\" /Fd"DEBUG\VC110.PDB" /Gd /TP /analyze- C:\USERS\ASUS\DOCUMENTS\VISUAL STUDIO 2012\PROJECTS\OPENGL_FRAMEWORK_VS2012_WIN32\SRC\SHADER.CPP
^C:\USERS\ASUS\DOCUMENTS\VISUAL STUDIO 2012\PROJECTS\OPENGL_FRAMEWORK_VS2012_WIN32\SRC\TRANSFORMATIONSTACK.CPP
/c /I"C:\Users\asus\Documents\Visual Studio 2012\Projects\OpenGL_Framework_VS2012_Win32\examples\SolarSystem\../../include" /I"C:\Users\asus\Documents\Visual Studio 2012\Projects\OpenGL_Framework_VS2012_Win32\examples\SolarSystem\../../contrib/gloostmath/src" /I"C:\Users\asus\Documents\Visual Studio 2012\Projects\OpenGL_Framework_VS2012_Win32\examples\SolarSystem\../../contrib/FreeImage" /I"C:\Users\asus\Documents\Visual Studio 2012\Projects\OpenGL_Framework_VS2012_Win32\examples\SolarSystem\../../src" /ZI /nologo /W3 /WX- /Od /Oy- /D WIN32 /D _DEBUG /D _CONSOLE /D _UNICODE /D UNICODE /Gm /EHsc /RTC1 /MDd /GS /fp:precise /Zc:wchar_t /Zc:forScope /Fo"DEBUG\\" /Fd"DEBUG\VC110.PDB" /Gd /TP /analyze- C:\USERS\ASUS\DOCUMENTS\VISUAL STUDIO 2012\PROJECTS\OPENGL_FRAMEWORK_VS2012_WIN32\SRC\TRANSFORMATIONSTACK.CPP
^C:\USERS\ASUS\DOCUMENTS\VISUAL STUDIO 2012\PROJECTS\OPENGL_FRAMEWORK_VS2012_WIN32\EXAMPLES\SOLARSYSTEM\TEST\MAIN.CPP
/c /I"C:\Users\asus\Documents\Visual Studio 2012\Projects\OpenGL_Framework_VS2012_Win32\examples\SolarSystem\../../include" /I"C:\Users\asus\Documents\Visual Studio 2012\Projects\OpenGL_Framework_VS2012_Win32\examples\SolarSystem\../../contrib/gloostmath/src" /I"C:\Users\asus\Documents\Visual Studio 2012\Projects\OpenGL_Framework_VS2012_Win32\examples\SolarSystem\../../contrib/FreeImage" /I"C:\Users\asus\Documents\Visual Studio 2012\Projects\OpenGL_Framework_VS2012_Win32\examples\SolarSystem\../../src" /ZI /nologo /W3 /WX- /Od /Oy- /D WIN32 /D _DEBUG /D _CONSOLE /D _UNICODE /D UNICODE /Gm /EHsc /RTC1 /MDd /GS /fp:precise /Zc:wchar_t /Zc:forScope /Fo"DEBUG\\" /Fd"DEBUG\VC110.PDB" /Gd /TP /analyze- C:\USERS\ASUS\DOCUMENTS\VISUAL STUDIO 2012\PROJECTS\OPENGL_FRAMEWORK_VS2012_WIN32\EXAMPLES\SOLARSYSTEM\TEST\MAIN.CPP
