1,6,7
2,7,8
2,8,9
10,3,9
12,4,11
12,13,5
13,14,5
14,6,1
15,16,27
15,27,26
16,17,28
16,28,27
17,18,29
17,29,28
18,19,30
18,30,29
19,20,31
19,31,30
21,32,31
20,21,31
22,33,32
21,22,32
23,34,33
22,23,33
24,35,34
23,24,34
25,36,35
24,25,35
26,27,38
26,38,37
27,28,39
27,39,38
28,29,40
28,40,39
29,30,41
29,41,40
30,31,42
30,42,41
32,43,42
31,32,42
33,44,43
32,33,43
34,45,44
33,34,44
35,46,45
34,35,45
36,47,46
35,36,46
37,38,49
37,49,48
38,39,50
38,50,49
39,40,51
39,51,50
40,41,52
40,52,51
41,42,53
41,53,52
43,54,53
42,43,53
44,55,54
43,44,54
45,56,55
44,45,55
46,57,56
45,46,56
47,58,57
46,47,57
48,49,60
48,60,59
49,50,61
49,61,60
50,51,62
50,62,61
51,52,63
51,63,62
52,53,64
52,64,63
54,65,64
53,54,64
55,66,65
54,55,65
56,67,66
55,56,66
57,68,67
56,57,67
58,69,68
57,58,68
59,60,71
59,71,70
60,61,72
60,72,71
61,62,73
61,73,72
62,63,74
62,74,73
63,64,75
63,75,74
65,76,75
64,65,75
66,77,76
65,66,76
67,78,77
66,67,77
68,79,78
67,68,78
69,80,79
68,69,79
70,71,82
70,82,81
71,72,83
71,83,82
72,73,84
72,84,83
73,74,85
73,85,84
74,75,86
74,86,85
76,87,86
75,76,86
77,88,87
76,77,87
78,89,88
77,78,88
79,90,89
78,79,89
80,91,90
79,80,90
81,82,93
81,93,92
82,83,94
82,94,93
83,84,95
83,95,94
84,85,96
84,96,95
85,86,97
85,97,96
87,98,97
86,87,97
88,99,98
87,88,98
89,100,99
88,89,99
90,101,100
89,90,100
91,102,101
90,91,101
92,93,104
92,104,103
93,94,105
93,105,104
94,95,106
94,106,105
95,96,107
95,107,106
96,97,108
96,108,107
98,109,108
97,98,108
99,110,109
98,99,109
100,111,110
99,100,110
101,112,111
100,101,111
102,113,112
101,102,112
103,104,115
103,115,114
104,105,116
104,116,115
105,106,117
105,117,116
106,107,118
106,118,117
107,108,119
107,119,118
109,120,119
108,109,119
110,121,120
109,110,120
111,122,121
110,111,121
112,123,122
111,112,122
113,124,123
112,113,123
114,126,125
114,115,126
115,127,126
115,128,127
115,116,128
116,129,128
116,130,129
116,117,130
117,131,130
117,132,131
117,118,132
118,133,132
118,134,133
118,119,134
119,135,134
119,136,135
119,120,136
120,137,136
120,138,137
120,121,138
121,139,138
121,140,139
121,122,140
122,141,140
122,142,141
122,123,142
123,143,142
123,144,143
123,124,144
124,145,144
125,147,146
125,126,147
126,148,147
126,149,148
126,127,149
127,150,149
127,151,150
127,128,151
128,152,151
128,153,152
128,129,153
129,154,153
129,155,154
129,130,155
130,156,155
130,157,156
130,131,157
131,158,157
131,159,158
131,132,159
132,160,159
132,161,160
132,133,161
133,162,161
133,163,162
133,134,163
134,164,163
134,165,164
134,135,165
135,166,165
135,167,166
135,136,167
136,168,167
136,169,168
136,137,169
137,170,169
137,171,170
137,138,171
138,172,171
138,173,172
138,139,173
139,174,173
139,175,174
139,140,175
140,176,175
140,177,176
140,141,177
141,178,177
141,179,178
141,142,179
142,180,179
142,181,180
142,143,181
143,182,181
143,183,182
143,144,183
144,184,183
144,185,184
144,145,185
145,186,185
146,188,187
146,147,188
147,189,188
147,190,189
147,148,190
148,191,190
148,192,191
148,149,192
149,193,192
149,194,193
149,150,194
150,195,194
150,196,195
150,151,196
151,197,196
151,198,197
151,152,198
152,199,198
152,200,199
152,153,200
153,201,200
153,202,201
153,154,202
154,203,202
154,204,203
154,155,204
155,205,204
155,206,205
155,156,206
156,207,206
156,208,207
156,157,208
157,209,208
157,210,209
157,158,210
158,211,210
158,212,211
158,159,212
159,213,212
159,214,213
159,160,214
160,215,214
160,216,215
160,161,216
161,217,216
161,218,217
161,162,218
162,219,218
162,220,219
162,163,220
163,221,220
163,222,221
163,164,222
164,223,222
164,224,223
164,165,224
165,225,224
165,226,225
165,166,226
166,227,226
166,228,227
166,167,228
167,229,228
167,230,229
167,168,230
168,231,230
168,232,231
168,169,232
169,233,232
169,234,233
169,170,234
170,235,234
170,236,235
170,171,236
171,237,236
171,238,237
171,172,238
172,239,238
172,240,239
172,173,240
173,241,240
173,242,241
173,174,242
174,243,242
174,244,243
174,175,244
175,245,244
175,246,245
175,176,246
176,247,246
176,248,247
176,177,248
177,249,248
177,250,249
177,178,250
178,251,250
178,252,251
178,179,252
179,253,252
179,254,253
179,180,254
180,255,254
180,256,255
180,181,256
181,257,256
181,258,257
181,182,258
182,259,258
182,260,259
182,183,260
183,261,260
183,262,261
183,184,262
184,263,262
184,264,263
184,185,264
185,265,264
185,266,265
185,186,266
186,267,266
187,269,268
187,188,269
188,189,270
188,270,269
189,190,271
189,271,270
190,191,272
190,272,271
191,192,273
191,273,272
192,193,274
192,274,273
193,194,275
193,275,274
194,195,276
194,276,275
195,196,277
195,277,276
196,197,278
196,278,277
197,198,279
197,279,278
198,199,280
198,280,279
199,200,281
199,281,280
200,201,282
200,282,281
201,202,283
201,283,282
202,203,284
202,284,283
203,204,285
203,285,284
204,205,286
204,286,285
205,206,287
205,287,286
206,207,288
206,288,287
207,208,289
207,289,288
208,209,290
208,290,289
209,210,291
209,291,290
210,211,292
210,292,291
211,212,293
211,293,292
212,213,294
212,294,293
213,214,295
213,295,294
214,215,296
214,296,295
215,216,297
215,297,296
216,217,298
216,298,297
217,218,299
217,299,298
218,219,300
218,300,299
219,220,301
219,301,300
220,221,302
220,302,301
221,222,303
221,303,302
222,223,304
222,304,303
223,224,305
223,305,304
224,225,306
224,306,305
225,226,307
225,307,306
226,227,308
226,308,307
228,309,308
227,228,308
229,310,309
228,229,309
230,311,310
229,230,310
231,312,311
230,231,311
232,313,312
231,232,312
233,314,313
232,233,313
234,315,314
233,234,314
235,316,315
234,235,315
236,317,316
235,236,316
237,318,317
236,237,317
238,319,318
237,238,318
239,320,319
238,239,319
240,321,320
239,240,320
241,322,321
240,241,321
242,323,322
241,242,322
243,324,323
242,243,323
244,325,324
243,244,324
245,326,325
244,245,325
246,327,326
245,246,326
247,328,327
246,247,327
248,329,328
247,248,328
249,330,329
248,249,329
250,331,330
249,250,330
251,332,331
250,251,331
252,333,332
251,252,332
253,334,333
252,253,333
254,335,334
253,254,334
255,336,335
254,255,335
256,337,336
255,256,336
257,338,337
256,257,337
258,339,338
257,258,338
259,340,339
258,259,339
260,341,340
259,260,340
261,342,341
260,261,341
262,343,342
261,262,342
263,344,343
262,263,343
264,345,344
263,264,344
265,346,345
264,265,345
266,347,346
265,266,346
266,267,347
267,348,347
287,349,286
287,288,350
287,350,349
288,289,351
288,351,350
289,290,352
289,352,351
290,291,353
290,353,352
291,292,354
291,354,353
292,293,355
292,355,354
293,294,356
293,356,355
294,295,357
294,357,356
295,296,358
295,358,357
296,297,359
296,359,358
297,298,360
297,360,359
298,299,361
298,361,360
299,300,362
299,362,361
300,301,363
300,363,362
301,302,364
301,364,363
302,303,365
302,365,364
303,304,366
303,366,365
304,305,367
304,367,366
305,306,368
305,368,367
306,307,12
306,12,368
307,308,13
307,13,12
309,14,13
308,309,13
310,369,14
309,310,14
311,370,369
310,311,369
312,371,370
311,312,370
313,372,371
312,313,371
314,373,372
313,314,372
315,374,373
314,315,373
316,375,374
315,316,374
317,376,375
316,317,375
318,377,376
317,318,376
319,378,377
318,319,377
320,379,378
319,320,378
321,380,379
320,321,379
322,381,380
321,322,380
323,382,381
322,323,381
324,383,382
323,324,382
325,384,383
324,325,383
326,385,384
325,326,384
327,386,385
326,327,385
328,387,386
327,328,386
329,388,387
328,329,387
329,330,388
366,389,365
366,367,390
366,390,389
367,368,391
367,391,390
368,12,11
368,11,391
369,395,6
14,369,6
370,396,395
369,370,395
371,397,396
370,371,396
371,372,397
392,415,414
393,416,415
392,393,415
394,417,416
393,394,416
10,9,417
394,10,417
6,395,418
6,418,7
395,396,419
395,419,418
396,397,420
396,420,419
397,421,420
398,457,456
399,458,457
399,457,398
400,459,458
400,458,399
401,460,459
401,459,400
402,461,460
402,460,401
403,462,461
403,461,402
404,463,462
404,462,403
405,464,463
405,463,404
406,465,464
406,464,405
407,466,465
407,465,406
408,467,466
408,466,407
409,468,467
409,467,408
410,469,468
410,468,409
411,470,469
411,469,410
412,471,470
412,470,411
413,472,471
413,471,412
414,473,472
414,472,413
415,474,473
414,415,473
416,475,474
415,416,474
417,476,475
416,417,475
9,477,476
417,9,476
8,478,477
9,8,477
8,7,479
8,479,478
7,418,480
7,480,479
418,419,481
418,481,480
419,420,482
419,482,481
421,483,420
420,483,482
421,422,484
421,484,483
422,423,485
422,485,484
423,424,486
423,486,485
424,425,487
424,487,486
425,426,488
425,488,487
426,427,489
426,489,488
427,428,490
427,490,489
428,429,491
428,491,490
429,430,492
429,492,491
430,431,493
430,493,492
431,432,494
431,494,493
432,433,495
432,495,494
433,434,496
433,496,495
434,435,497
434,497,496
435,436,498
435,498,497
436,437,499
436,499,498
437,500,499
439,519,438
439,520,519
440,521,520
440,520,439
441,522,521
441,521,440
442,523,522
442,522,441
443,524,523
443,523,442
444,525,524
444,524,443
445,526,525
445,525,444
446,527,526
446,526,445
447,528,527
447,527,446
448,529,528
448,528,447
449,530,529
449,529,448
450,531,530
450,530,449
451,532,531
451,531,450
452,533,532
452,532,451
453,534,533
453,533,452
454,535,534
454,534,453
455,536,535
455,535,454
456,537,536
456,536,455
457,538,537
456,457,537
458,539,538
457,458,538
459,540,539
458,459,539
460,541,540
459,460,540
461,542,541
460,461,541
462,543,542
461,462,542
463,544,543
462,463,543
464,545,544
463,464,544
465,546,545
464,465,545
466,547,546
465,466,546
467,548,547
466,467,547
468,549,548
467,468,548
469,550,549
468,469,549
470,551,550
469,470,550
471,552,551
470,471,551
472,553,552
471,472,552
473,554,553
472,473,553
474,555,554
473,474,554
475,556,555
474,475,555
476,557,556
475,476,556
477,558,557
476,477,557
478,559,558
477,478,558
478,479,560
478,560,559
479,480,561
479,561,560
480,481,562
480,562,561
481,482,563
481,563,562
482,483,564
482,564,563
483,484,565
483,565,564
484,485,566
484,566,565
485,486,567
485,567,566
486,487,568
486,568,567
487,488,569
487,569,568
488,489,570
488,570,569
489,490,571
489,571,570
490,491,572
490,572,571
491,492,573
491,573,572
492,493,574
492,574,573
493,494,575
493,575,574
494,495,576
494,576,575
495,496,577
495,577,576
496,497,578
496,578,577
497,498,579
497,579,578
498,499,580
498,580,579
500,581,499
499,581,580
500,501,582
500,582,581
501,502,583
501,583,582
502,503,584
502,584,583
503,504,585
503,585,584
504,505,586
504,586,585
505,506,587
505,587,586
506,507,588
506,588,587
507,508,589
507,589,588
508,509,590
508,590,589
509,510,591
509,591,590
510,511,592
510,592,591
511,512,593
511,593,592
512,513,594
512,594,593
513,514,595
513,595,594
514,515,596
514,596,595
515,516,597
515,597,596
516,517,598
516,598,597
517,599,598
517,518,599
519,520,600
520,601,600
520,521,601
521,522,601
522,602,601
522,523,602
523,524,602
524,603,602
524,525,603
525,526,603
526,604,603
526,527,604
527,528,604
528,605,604
528,529,605
529,530,605
530,606,605
530,531,606
531,532,606
532,607,606
532,533,607
533,534,607
534,608,607
534,535,608
535,536,608
536,609,608
536,537,609
537,538,609
538,610,609
538,539,610
539,540,610
540,611,610
540,541,611
541,542,611
542,612,611
542,543,612
543,544,612
544,613,612
544,545,613
545,546,613
546,614,613
546,547,614
547,548,614
548,615,614
548,549,615
549,550,615
550,616,615
550,551,616
551,552,616
552,617,616
552,553,617
553,554,617
554,618,617
554,555,618
555,556,618
556,619,618
556,557,619
557,558,619
558,620,619
558,559,620
559,560,620
560,621,620
560,561,621
561,562,621
562,622,621
562,563,622
563,564,622
564,623,622
564,565,623
565,566,623
566,624,623
566,567,624
567,568,624
568,625,624
568,569,625
569,570,625
570,626,625
570,571,626
571,572,626
572,627,626
572,573,627
573,574,627
574,628,627
574,575,628
575,576,628
576,629,628
576,577,629
577,578,629
578,630,629
578,579,630
579,580,630
580,631,630
580,581,631
581,582,631
582,632,631
582,583,632
583,584,632
584,633,632
584,585,633
585,586,633
586,634,633
586,587,634
587,588,634
588,635,634
588,589,635
589,590,635
590,636,635
590,591,636
591,592,636
592,637,636
592,593,637
593,594,637
594,638,637
594,595,638
595,596,638
596,639,638
596,597,639
597,598,639
598,640,639
598,599,640
600,601,641
601,642,641
601,602,642
602,603,642
603,643,642
603,604,643
604,605,643
605,644,643
605,606,644
606,607,644
607,645,644
607,608,645
608,609,645
609,646,645
609,610,646
610,611,646
611,647,646
611,612,647
612,613,647
613,648,647
613,614,648
614,615,648
615,649,648
615,616,649
616,617,649
617,650,649
617,618,650
618,619,650
619,651,650
619,620,651
620,621,651
621,652,651
621,622,652
622,623,652
623,653,652
623,624,653
624,625,653
625,654,653
625,626,654
626,627,654
627,655,654
627,628,655
628,629,655
629,656,655
629,630,656
630,631,656
631,657,656
631,632,657
632,633,657
633,658,657
633,634,658
634,635,658
635,659,658
635,636,659
636,637,659
637,660,659
637,638,660
638,639,660
639,661,660
639,640,661
641,642,662
642,663,662
642,643,663
643,644,663
644,664,663
644,645,664
645,646,664
646,665,664
646,647,665
647,648,665
648,666,665
648,649,666
649,650,666
650,667,666
650,651,667
651,652,667
652,668,667
652,653,668
653,654,668
654,669,668
654,655,669
655,656,669
656,670,669
656,657,670
657,658,670
658,671,670
658,659,671
659,660,671
660,672,671
660,661,672
663,674,673
662,663,673
664,675,674
663,664,674
665,676,675
664,665,675
666,677,676
665,666,676
667,678,677
666,667,677
667,668,679
667,679,678
668,669,680
668,680,679
669,670,681
669,681,680
670,671,682
670,682,681
671,672,683
671,683,682
674,685,684
673,674,684
675,686,685
674,675,685
676,687,686
675,676,686
677,688,687
676,677,687
678,689,688
677,678,688
678,679,690
678,690,689
679,680,691
679,691,690
680,681,692
680,692,691
681,682,693
681,693,692
682,683,694
682,694,693
685,696,695
684,685,695
686,697,696
685,686,696
687,698,697
686,687,697
688,699,698
687,688,698
689,700,699
688,689,699
689,690,701
689,701,700
690,691,702
690,702,701
691,692,703
691,703,702
692,693,704
692,704,703
693,694,705
693,705,704
696,707,706
695,696,706
697,708,707
696,697,707
698,709,708
697,698,708
699,710,709
698,699,709
700,711,710
699,700,710
700,701,712
700,712,711
701,702,713
701,713,712
702,703,714
702,714,713
703,704,715
703,715,714
704,705,716
704,716,715
707,718,717
706,707,717
708,719,718
707,708,718
709,720,719
708,709,719
710,721,720
709,710,720
711,722,721
710,711,721
711,712,723
711,723,722
712,713,724
712,724,723
713,714,725
713,725,724
714,715,726
714,726,725
715,716,727
715,727,726
718,729,728
717,718,728
719,730,729
718,719,729
720,731,730
719,720,730
721,732,731
720,721,731
722,733,732
721,722,732
722,723,734
722,734,733
723,724,735
723,735,734
724,725,736
724,736,735
725,726,737
725,737,736
726,727,738
726,738,737
729,740,739
728,729,739
730,741,740
729,730,740
731,742,741
730,731,741
732,743,742
731,732,742
733,744,743
732,733,743
733,734,745
733,745,744
734,735,746
734,746,745
735,736,747
735,747,746
736,737,748
736,748,747
737,738,749
737,749,748
740,751,750
739,740,750
741,752,751
740,741,751
742,753,752
741,742,752
743,754,753
742,743,753
744,755,754
743,744,754
744,745,756
744,756,755
745,746,757
745,757,756
746,747,758
746,758,757
747,748,759
747,759,758
748,749,760
748,760,759
751,762,761
750,751,761
752,763,762
751,752,762
753,764,763
752,753,763
754,765,764
753,754,764
755,766,765
754,755,765
755,756,767
755,767,766
756,757,768
756,768,767
757,758,769
757,769,768
758,759,770
758,770,769
759,760,771
759,771,770,
