^D:\REPOS\VISUALISIERUNG_SCIVIS\FRAMEWORK SCIVIS\CONTRIB\GLOOSTMATH\SRC\BITMASK.CPP
/c /I"D:\repos\visualisierung_scivis\Framework SciVis\examples\SolarSystem\../../contrib/gloostmath/src" /I"D:\repos\visualisierung_scivis\Framework SciVis\examples\SolarSystem\../../include" /Zi /nologo /W0 /WX- /O2 /Oi /Oy- /GL /D WIN32 /D NDEBUG /D _LIB /D _UNICODE /D UNICODE /Gm- /EHsc /MD /GS /Gy /fp:precise /Zc:wchar_t /Zc:forScope /Fo"RELEASE\\" /Fd"RELEASE\VC110.PDB" /Gd /TP /analyze- D:\REPOS\VISUALISIERUNG_SCIVIS\FRAMEWORK SCIVIS\CONTRIB\GLOOSTMATH\SRC\BITMASK.CPP
^D:\REPOS\VISUALISIERUNG_SCIVIS\FRAMEWORK SCIVIS\CONTRIB\GLOOSTMATH\SRC\BOUNDINGBOX.CPP
/c /I"D:\repos\visualisierung_scivis\Framework SciVis\examples\SolarSystem\../../contrib/gloostmath/src" /I"D:\repos\visualisierung_scivis\Framework SciVis\examples\SolarSystem\../../include" /Zi /nologo /W0 /WX- /O2 /Oi /Oy- /GL /D WIN32 /D NDEBUG /D _LIB /D _UNICODE /D UNICODE /Gm- /EHsc /MD /GS /Gy /fp:precise /Zc:wchar_t /Zc:forScope /Fo"RELEASE\\" /Fd"RELEASE\VC110.PDB" /Gd /TP /analyze- D:\REPOS\VISUALISIERUNG_SCIVIS\FRAMEWORK SCIVIS\CONTRIB\GLOOSTMATH\SRC\BOUNDINGBOX.CPP
^D:\REPOS\VISUALISIERUNG_SCIVIS\FRAMEWORK SCIVIS\CONTRIB\GLOOSTMATH\SRC\BOUNDINGVOLUME.CPP
/c /I"D:\repos\visualisierung_scivis\Framework SciVis\examples\SolarSystem\../../contrib/gloostmath/src" /I"D:\repos\visualisierung_scivis\Framework SciVis\examples\SolarSystem\../../include" /Zi /nologo /W0 /WX- /O2 /Oi /Oy- /GL /D WIN32 /D NDEBUG /D _LIB /D _UNICODE /D UNICODE /Gm- /EHsc /MD /GS /Gy /fp:precise /Zc:wchar_t /Zc:forScope /Fo"RELEASE\\" /Fd"RELEASE\VC110.PDB" /Gd /TP /analyze- D:\REPOS\VISUALISIERUNG_SCIVIS\FRAMEWORK SCIVIS\CONTRIB\GLOOSTMATH\SRC\BOUNDINGVOLUME.CPP
^D:\REPOS\VISUALISIERUNG_SCIVIS\FRAMEWORK SCIVIS\CONTRIB\GLOOSTMATH\SRC\DCS.CPP
/c /I"D:\repos\visualisierung_scivis\Framework SciVis\examples\SolarSystem\../../contrib/gloostmath/src" /I"D:\repos\visualisierung_scivis\Framework SciVis\examples\SolarSystem\../../include" /Zi /nologo /W0 /WX- /O2 /Oi /Oy- /GL /D WIN32 /D NDEBUG /D _LIB /D _UNICODE /D UNICODE /Gm- /EHsc /MD /GS /Gy /fp:precise /Zc:wchar_t /Zc:forScope /Fo"RELEASE\\" /Fd"RELEASE\VC110.PDB" /Gd /TP /analyze- D:\REPOS\VISUALISIERUNG_SCIVIS\FRAMEWORK SCIVIS\CONTRIB\GLOOSTMATH\SRC\DCS.CPP
^D:\REPOS\VISUALISIERUNG_SCIVIS\FRAMEWORK SCIVIS\CONTRIB\GLOOSTMATH\SRC\FRUSTUM.CPP
/c /I"D:\repos\visualisierung_scivis\Framework SciVis\examples\SolarSystem\../../contrib/gloostmath/src" /I"D:\repos\visualisierung_scivis\Framework SciVis\examples\SolarSystem\../../include" /Zi /nologo /W0 /WX- /O2 /Oi /Oy- /GL /D WIN32 /D NDEBUG /D _LIB /D _UNICODE /D UNICODE /Gm- /EHsc /MD /GS /Gy /fp:precise /Zc:wchar_t /Zc:forScope /Fo"RELEASE\\" /Fd"RELEASE\VC110.PDB" /Gd /TP /analyze- D:\REPOS\VISUALISIERUNG_SCIVIS\FRAMEWORK SCIVIS\CONTRIB\GLOOSTMATH\SRC\FRUSTUM.CPP
^D:\REPOS\VISUALISIERUNG_SCIVIS\FRAMEWORK SCIVIS\CONTRIB\GLOOSTMATH\SRC\GLERRORUTIL.CPP
/c /I"D:\repos\visualisierung_scivis\Framework SciVis\examples\SolarSystem\../../contrib/gloostmath/src" /I"D:\repos\visualisierung_scivis\Framework SciVis\examples\SolarSystem\../../include" /Zi /nologo /W0 /WX- /O2 /Oi /Oy- /GL /D WIN32 /D NDEBUG /D _LIB /D _UNICODE /D UNICODE /Gm- /EHsc /MD /GS /Gy /fp:precise /Zc:wchar_t /Zc:forScope /Fo"RELEASE\\" /Fd"RELEASE\VC110.PDB" /Gd /TP /analyze- D:\REPOS\VISUALISIERUNG_SCIVIS\FRAMEWORK SCIVIS\CONTRIB\GLOOSTMATH\SRC\GLERRORUTIL.CPP
^D:\REPOS\VISUALISIERUNG_SCIVIS\FRAMEWORK SCIVIS\CONTRIB\GLOOSTMATH\SRC\MATERIAL.CPP
/c /I"D:\repos\visualisierung_scivis\Framework SciVis\examples\SolarSystem\../../contrib/gloostmath/src" /I"D:\repos\visualisierung_scivis\Framework SciVis\examples\SolarSystem\../../include" /Zi /nologo /W0 /WX- /O2 /Oi /Oy- /GL /D WIN32 /D NDEBUG /D _LIB /D _UNICODE /D UNICODE /Gm- /EHsc /MD /GS /Gy /fp:precise /Zc:wchar_t /Zc:forScope /Fo"RELEASE\\" /Fd"RELEASE\VC110.PDB" /Gd /TP /analyze- D:\REPOS\VISUALISIERUNG_SCIVIS\FRAMEWORK SCIVIS\CONTRIB\GLOOSTMATH\SRC\MATERIAL.CPP
^D:\REPOS\VISUALISIERUNG_SCIVIS\FRAMEWORK SCIVIS\CONTRIB\GLOOSTMATH\SRC\MATRIX.CPP
/c /I"D:\repos\visualisierung_scivis\Framework SciVis\examples\SolarSystem\../../contrib/gloostmath/src" /I"D:\repos\visualisierung_scivis\Framework SciVis\examples\SolarSystem\../../include" /Zi /nologo /W0 /WX- /O2 /Oi /Oy- /GL /D WIN32 /D NDEBUG /D _LIB /D _UNICODE /D UNICODE /Gm- /EHsc /MD /GS /Gy /fp:precise /Zc:wchar_t /Zc:forScope /Fo"RELEASE\\" /Fd"RELEASE\VC110.PDB" /Gd /TP /analyze- D:\REPOS\VISUALISIERUNG_SCIVIS\FRAMEWORK SCIVIS\CONTRIB\GLOOSTMATH\SRC\MATRIX.CPP
^D:\REPOS\VISUALISIERUNG_SCIVIS\FRAMEWORK SCIVIS\CONTRIB\GLOOSTMATH\SRC\MATRIXSTACK.CPP
/c /I"D:\repos\visualisierung_scivis\Framework SciVis\examples\SolarSystem\../../contrib/gloostmath/src" /I"D:\repos\visualisierung_scivis\Framework SciVis\examples\SolarSystem\../../include" /Zi /nologo /W0 /WX- /O2 /Oi /Oy- /GL /D WIN32 /D NDEBUG /D _LIB /D _UNICODE /D UNICODE /Gm- /EHsc /MD /GS /Gy /fp:precise /Zc:wchar_t /Zc:forScope /Fo"RELEASE\\" /Fd"RELEASE\VC110.PDB" /Gd /TP /analyze- D:\REPOS\VISUALISIERUNG_SCIVIS\FRAMEWORK SCIVIS\CONTRIB\GLOOSTMATH\SRC\MATRIXSTACK.CPP
^D:\REPOS\VISUALISIERUNG_SCIVIS\FRAMEWORK SCIVIS\CONTRIB\GLOOSTMATH\SRC\MESH.CPP
/c /I"D:\repos\visualisierung_scivis\Framework SciVis\examples\SolarSystem\../../contrib/gloostmath/src" /I"D:\repos\visualisierung_scivis\Framework SciVis\examples\SolarSystem\../../include" /Zi /nologo /W0 /WX- /O2 /Oi /Oy- /GL /D WIN32 /D NDEBUG /D _LIB /D _UNICODE /D UNICODE /Gm- /EHsc /MD /GS /Gy /fp:precise /Zc:wchar_t /Zc:forScope /Fo"RELEASE\\" /Fd"RELEASE\VC110.PDB" /Gd /TP /analyze- D:\REPOS\VISUALISIERUNG_SCIVIS\FRAMEWORK SCIVIS\CONTRIB\GLOOSTMATH\SRC\MESH.CPP
^D:\REPOS\VISUALISIERUNG_SCIVIS\FRAMEWORK SCIVIS\CONTRIB\GLOOSTMATH\SRC\MESHLOADER.CPP
/c /I"D:\repos\visualisierung_scivis\Framework SciVis\examples\SolarSystem\../../contrib/gloostmath/src" /I"D:\repos\visualisierung_scivis\Framework SciVis\examples\SolarSystem\../../include" /Zi /nologo /W0 /WX- /O2 /Oi /Oy- /GL /D WIN32 /D NDEBUG /D _LIB /D _UNICODE /D UNICODE /Gm- /EHsc /MD /GS /Gy /fp:precise /Zc:wchar_t /Zc:forScope /Fo"RELEASE\\" /Fd"RELEASE\VC110.PDB" /Gd /TP /analyze- D:\REPOS\VISUALISIERUNG_SCIVIS\FRAMEWORK SCIVIS\CONTRIB\GLOOSTMATH\SRC\MESHLOADER.CPP
^D:\REPOS\VISUALISIERUNG_SCIVIS\FRAMEWORK SCIVIS\CONTRIB\GLOOSTMATH\SRC\OBJLOADER.CPP
/c /I"D:\repos\visualisierung_scivis\Framework SciVis\examples\SolarSystem\../../contrib/gloostmath/src" /I"D:\repos\visualisierung_scivis\Framework SciVis\examples\SolarSystem\../../include" /Zi /nologo /W0 /WX- /O2 /Oi /Oy- /GL /D WIN32 /D NDEBUG /D _LIB /D _UNICODE /D UNICODE /Gm- /EHsc /MD /GS /Gy /fp:precise /Zc:wchar_t /Zc:forScope /Fo"RELEASE\\" /Fd"RELEASE\VC110.PDB" /Gd /TP /analyze- D:\REPOS\VISUALISIERUNG_SCIVIS\FRAMEWORK SCIVIS\CONTRIB\GLOOSTMATH\SRC\OBJLOADER.CPP
^D:\REPOS\VISUALISIERUNG_SCIVIS\FRAMEWORK SCIVIS\CONTRIB\GLOOSTMATH\SRC\OBJMATFILE.CPP
/c /I"D:\repos\visualisierung_scivis\Framework SciVis\examples\SolarSystem\../../contrib/gloostmath/src" /I"D:\repos\visualisierung_scivis\Framework SciVis\examples\SolarSystem\../../include" /Zi /nologo /W0 /WX- /O2 /Oi /Oy- /GL /D WIN32 /D NDEBUG /D _LIB /D _UNICODE /D UNICODE /Gm- /EHsc /MD /GS /Gy /fp:precise /Zc:wchar_t /Zc:forScope /Fo"RELEASE\\" /Fd"RELEASE\VC110.PDB" /Gd /TP /analyze- D:\REPOS\VISUALISIERUNG_SCIVIS\FRAMEWORK SCIVIS\CONTRIB\GLOOSTMATH\SRC\OBJMATFILE.CPP
^D:\REPOS\VISUALISIERUNG_SCIVIS\FRAMEWORK SCIVIS\CONTRIB\GLOOSTMATH\SRC\PLANE.CPP
/c /I"D:\repos\visualisierung_scivis\Framework SciVis\examples\SolarSystem\../../contrib/gloostmath/src" /I"D:\repos\visualisierung_scivis\Framework SciVis\examples\SolarSystem\../../include" /Zi /nologo /W0 /WX- /O2 /Oi /Oy- /GL /D WIN32 /D NDEBUG /D _LIB /D _UNICODE /D UNICODE /Gm- /EHsc /MD /GS /Gy /fp:precise /Zc:wchar_t /Zc:forScope /Fo"RELEASE\\" /Fd"RELEASE\VC110.PDB" /Gd /TP /analyze- D:\REPOS\VISUALISIERUNG_SCIVIS\FRAMEWORK SCIVIS\CONTRIB\GLOOSTMATH\SRC\PLANE.CPP
^D:\REPOS\VISUALISIERUNG_SCIVIS\FRAMEWORK SCIVIS\CONTRIB\GLOOSTMATH\SRC\POINT3.CPP
/c /I"D:\repos\visualisierung_scivis\Framework SciVis\examples\SolarSystem\../../contrib/gloostmath/src" /I"D:\repos\visualisierung_scivis\Framework SciVis\examples\SolarSystem\../../include" /Zi /nologo /W0 /WX- /O2 /Oi /Oy- /GL /D WIN32 /D NDEBUG /D _LIB /D _UNICODE /D UNICODE /Gm- /EHsc /MD /GS /Gy /fp:precise /Zc:wchar_t /Zc:forScope /Fo"RELEASE\\" /Fd"RELEASE\VC110.PDB" /Gd /TP /analyze- D:\REPOS\VISUALISIERUNG_SCIVIS\FRAMEWORK SCIVIS\CONTRIB\GLOOSTMATH\SRC\POINT3.CPP
^D:\REPOS\VISUALISIERUNG_SCIVIS\FRAMEWORK SCIVIS\CONTRIB\GLOOSTMATH\SRC\QUATERNION.CPP
/c /I"D:\repos\visualisierung_scivis\Framework SciVis\examples\SolarSystem\../../contrib/gloostmath/src" /I"D:\repos\visualisierung_scivis\Framework SciVis\examples\SolarSystem\../../include" /Zi /nologo /W0 /WX- /O2 /Oi /Oy- /GL /D WIN32 /D NDEBUG /D _LIB /D _UNICODE /D UNICODE /Gm- /EHsc /MD /GS /Gy /fp:precise /Zc:wchar_t /Zc:forScope /Fo"RELEASE\\" /Fd"RELEASE\VC110.PDB" /Gd /TP /analyze- D:\REPOS\VISUALISIERUNG_SCIVIS\FRAMEWORK SCIVIS\CONTRIB\GLOOSTMATH\SRC\QUATERNION.CPP
^D:\REPOS\VISUALISIERUNG_SCIVIS\FRAMEWORK SCIVIS\CONTRIB\GLOOSTMATH\SRC\RAY.CPP
/c /I"D:\repos\visualisierung_scivis\Framework SciVis\examples\SolarSystem\../../contrib/gloostmath/src" /I"D:\repos\visualisierung_scivis\Framework SciVis\examples\SolarSystem\../../include" /Zi /nologo /W0 /WX- /O2 /Oi /Oy- /GL /D WIN32 /D NDEBUG /D _LIB /D _UNICODE /D UNICODE /Gm- /EHsc /MD /GS /Gy /fp:precise /Zc:wchar_t /Zc:forScope /Fo"RELEASE\\" /Fd"RELEASE\VC110.PDB" /Gd /TP /analyze- D:\REPOS\VISUALISIERUNG_SCIVIS\FRAMEWORK SCIVIS\CONTRIB\GLOOSTMATH\SRC\RAY.CPP
^D:\REPOS\VISUALISIERUNG_SCIVIS\FRAMEWORK SCIVIS\CONTRIB\GLOOSTMATH\SRC\SHAREDRESOURCE.CPP
/c /I"D:\repos\visualisierung_scivis\Framework SciVis\examples\SolarSystem\../../contrib/gloostmath/src" /I"D:\repos\visualisierung_scivis\Framework SciVis\examples\SolarSystem\../../include" /Zi /nologo /W0 /WX- /O2 /Oi /Oy- /GL /D WIN32 /D NDEBUG /D _LIB /D _UNICODE /D UNICODE /Gm- /EHsc /MD /GS /Gy /fp:precise /Zc:wchar_t /Zc:forScope /Fo"RELEASE\\" /Fd"RELEASE\VC110.PDB" /Gd /TP /analyze- D:\REPOS\VISUALISIERUNG_SCIVIS\FRAMEWORK SCIVIS\CONTRIB\GLOOSTMATH\SRC\SHAREDRESOURCE.CPP
^D:\REPOS\VISUALISIERUNG_SCIVIS\FRAMEWORK SCIVIS\CONTRIB\GLOOSTMATH\SRC\UNIFORMTYPES.CPP
/c /I"D:\repos\visualisierung_scivis\Framework SciVis\examples\SolarSystem\../../contrib/gloostmath/src" /I"D:\repos\visualisierung_scivis\Framework SciVis\examples\SolarSystem\../../include" /Zi /nologo /W0 /WX- /O2 /Oi /Oy- /GL /D WIN32 /D NDEBUG /D _LIB /D _UNICODE /D UNICODE /Gm- /EHsc /MD /GS /Gy /fp:precise /Zc:wchar_t /Zc:forScope /Fo"RELEASE\\" /Fd"RELEASE\VC110.PDB" /Gd /TP /analyze- D:\REPOS\VISUALISIERUNG_SCIVIS\FRAMEWORK SCIVIS\CONTRIB\GLOOSTMATH\SRC\UNIFORMTYPES.CPP
^D:\REPOS\VISUALISIERUNG_SCIVIS\FRAMEWORK SCIVIS\CONTRIB\GLOOSTMATH\SRC\VECTOR2.CPP
/c /I"D:\repos\visualisierung_scivis\Framework SciVis\examples\SolarSystem\../../contrib/gloostmath/src" /I"D:\repos\visualisierung_scivis\Framework SciVis\examples\SolarSystem\../../include" /Zi /nologo /W0 /WX- /O2 /Oi /Oy- /GL /D WIN32 /D NDEBUG /D _LIB /D _UNICODE /D UNICODE /Gm- /EHsc /MD /GS /Gy /fp:precise /Zc:wchar_t /Zc:forScope /Fo"RELEASE\\" /Fd"RELEASE\VC110.PDB" /Gd /TP /analyze- D:\REPOS\VISUALISIERUNG_SCIVIS\FRAMEWORK SCIVIS\CONTRIB\GLOOSTMATH\SRC\VECTOR2.CPP
^D:\REPOS\VISUALISIERUNG_SCIVIS\FRAMEWORK SCIVIS\CONTRIB\GLOOSTMATH\SRC\VECTOR3.CPP
/c /I"D:\repos\visualisierung_scivis\Framework SciVis\examples\SolarSystem\../../contrib/gloostmath/src" /I"D:\repos\visualisierung_scivis\Framework SciVis\examples\SolarSystem\../../include" /Zi /nologo /W0 /WX- /O2 /Oi /Oy- /GL /D WIN32 /D NDEBUG /D _LIB /D _UNICODE /D UNICODE /Gm- /EHsc /MD /GS /Gy /fp:precise /Zc:wchar_t /Zc:forScope /Fo"RELEASE\\" /Fd"RELEASE\VC110.PDB" /Gd /TP /analyze- D:\REPOS\VISUALISIERUNG_SCIVIS\FRAMEWORK SCIVIS\CONTRIB\GLOOSTMATH\SRC\VECTOR3.CPP
